^C:\USERS\USER\DOCUMENTS\MAGSHIMIM\ADVANCED PROGRAMMING 2\LECTURE2\שיעורי בית\SQLITE\HOME2\EXAMPLE.CPP
/c /ZI /nologo /W3 /WX- /sdl /Od /Oy- /D _MBCS /Gm /EHsc /RTC1 /MDd /GS /fp:precise /Zc:wchar_t /Zc:forScope /Fo"DEBUG\\" /Fd"DEBUG\VC120.PDB" /Gd /TP /analyze- C:\USERS\USER\DOCUMENTS\MAGSHIMIM\ADVANCED PROGRAMMING 2\LECTURE2\שיעורי בית\SQLITE\HOME2\EXAMPLE.CPP
^C:\USERS\USER\DOCUMENTS\MAGSHIMIM\ADVANCED PROGRAMMING 2\LECTURE2\שיעורי בית\SQLITE\HOME2\SOURCE.CPP
/c /ZI /nologo /W3 /WX- /sdl /Od /Oy- /D _MBCS /Gm /EHsc /RTC1 /MDd /GS /fp:precise /Zc:wchar_t /Zc:forScope /Fo"DEBUG\\" /Fd"DEBUG\VC120.PDB" /Gd /TP /analyze- C:\USERS\USER\DOCUMENTS\MAGSHIMIM\ADVANCED PROGRAMMING 2\LECTURE2\שיעורי בית\SQLITE\HOME2\SOURCE.CPP
^C:\USERS\USER\DOCUMENTS\MAGSHIMIM\ADVANCED PROGRAMMING 2\LECTURE2\שיעורי בית\SQLITE\HOME2\SQLITE3.C
/c /ZI /nologo /W3 /WX- /sdl /Od /Oy- /D _MBCS /Gm /EHsc /RTC1 /MDd /GS /fp:precise /Zc:wchar_t /Zc:forScope /Fo"DEBUG\\" /Fd"DEBUG\VC120.PDB" /Gd /TC /analyze- C:\USERS\USER\DOCUMENTS\MAGSHIMIM\ADVANCED PROGRAMMING 2\LECTURE2\שיעורי בית\SQLITE\HOME2\SQLITE3.C
